{
    "challenges": [
        "This is the END for you, you gutter-crawling cur!",
        "Soon you’ll be wearing my sword like a shish kebab!",
        "My handkerchief will wipe up your blood!",
        "People fall at my feet when they see me coming.",
        "I once owned a dog that was smarter than you.",
        "You make me want to puke.",
        "Nobody’s ever drawn blood from me and nobody ever will.",
        "You fight like a dairy farmer",
        "I got this scar on my face during a mighty struggle!",
        "Have you stopped wearing diapers yet?",
        "I’ve heard you were a contemptible sneak.",
        "You’re no match for my brains, you poor fool.",
        "You have the manners of a beggar.",
        "I’m not going to take your insolence sitting down!",
        "There are no words for how disgusting you are.",
        "I’ve spoken with apes more polite than you."
    ],
    "responses": [
        "And I’ve got a little TIP for you, get the POINT?",
        "First you better stop waiving it like a feather-duster.",
        "So you got that job as janitor, after all.",
        "Even BEFORE they smell your breath?",
        "He must have taught you everything you know.",
        "You make me think somebody already did.",
        "You run THAT fast?",
        "How appropriate. You fight like a cow.",
        "I hope now you’ve learned to stop picking your nose.",
        "Why, did you want to borrow one?",
        "Too bad no one’s ever heard of YOU at all.",
        "I’d be in real trouble if you ever used them.",
        "I wanted to make sure you’d feel comfortable with me.",
        "Your hemorrhoids are flaring up again, eh?",
        "Yes there are. You just never learned them.",
        "I’m glad to hear you attended your family reunion."
    ]
}